^Y:\GD\MOOC\ALGO\ALGO VS\TWO_SUM\DEBUG\HASHTABLE.OBJ|Y:\GD\MOOC\ALGO\ALGO VS\TWO_SUM\DEBUG\STDAFX.OBJ|Y:\GD\MOOC\ALGO\ALGO VS\TWO_SUM\DEBUG\TWO_SUM.OBJ
Y:\GD\MOOC\ALGO\ALGO VS\DEBUG\TWO_SUM.ILK
Y:\GD\MOOC\ALGO\ALGO VS\DEBUG\TWO_SUM.EXE
Y:\GD\MOOC\ALGO\ALGO VS\DEBUG\TWO_SUM.PDB
